…
``` r
tibble(
  a = lubridate::now() + runif(1e3) * 86400,
  b = lubridate::today() + runif(1e3) * 30,
  c = 1:1e3,
  d = runif(1e3),
  e = sample(letters, 1e3, replace = TRUE)
)
```

    ## # A tibble: 1,000 x 5
    ##    a                   b         
    ##    <dttm>              <date>    
    ##  1 2020-08-05 20:49:24 2020-08-21
    ##  2 2020-08-05 10:31:48 2020-08-27
    ##  3 2020-08-05 11:23:54 2020-08-31
    ##  4 2020-08-05 07:18:10 2020-08-25
    ##  5 2020-08-05 16:14:13 2020-08-26
    ##  6 2020-08-05 08:25:41 2020-09-03
    ##  7 2020-08-05 10:33:37 2020-08-27
    ##  8 2020-08-05 05:24:56 2020-08-11
    ##  9 2020-08-05 07:43:01 2020-08-25
    ## 10 2020-08-05 04:09:40 2020-08-17
    ## # ... with 990 more rows, and 3
    ## #   more variables: c <int>,
    ## #   d <dbl>, e <chr>
…
6.  What option controls how many additional column names are printed at
    the footer of a tibble?

<!-- end list -->

``` r
# n_extra argument in print function on a tibble

package?tibble
?print.tbl

print(nycflights13::flights, n_extra=5)
```

    ## # A tibble: 336,776 x 19
    ##     year month   day dep_time
    ##    <int> <int> <int>    <int>
    ##  1  2013     1     1      517
    ##  2  2013     1     1      533
    ##  3  2013     1     1      542
    ##  4  2013     1     1      544
    ##  5  2013     1     1      554
    ##  6  2013     1     1      554
    ##  7  2013     1     1      555
    ##  8  2013     1     1      557
    ##  9  2013     1     1      557
    ## 10  2013     1     1      558
    ## # ... with 336,766 more rows, and
    ## #   15 more variables:
    ## #   sched_dep_time <int>,
    ## #   dep_delay <dbl>,
    ## #   arr_time <int>,
    ## #   sched_arr_time <int>,
    ## #   arr_delay <dbl>, ...
